<?xml version="1.0" encoding="UTF-8" standalone="no"?>
<svg
   xmlns:dc="http://purl.org/dc/elements/1.1/"
   xmlns:cc="http://creativecommons.org/ns#"
   xmlns:rdf="http://www.w3.org/1999/02/22-rdf-syntax-ns#"
   xmlns:svg="http://www.w3.org/2000/svg"
   xmlns="http://www.w3.org/2000/svg"
   xmlns:sodipodi="http://sodipodi.sourceforge.net/DTD/sodipodi-0.dtd"
   xmlns:inkscape="http://www.inkscape.org/namespaces/inkscape"
   width="152.27737"
   height="48.968536"
   viewBox="0 0 40.290054 12.956259"
   version="1.1"
   id="svg2161"
   inkscape:version="1.0.1 (3bc2e813f5, 2020-09-07)"
   sodipodi:docname="merge.svg"
   inkscape:export-filename="/home/ry/code/ceftb/docs/logo/merge.png"
   inkscape:export-xdpi="96.000008"
   inkscape:export-ydpi="96.000008">
  <defs
     id="defs2155">
    <rect
       x="271.41098"
       y="281.28156"
       width="38.817768"
       height="12.675858"
       id="rect838" />
    <filter
       style="color-interpolation-filters:sRGB"
       id="filter4522"
       inkscape:label="filter0" />
  </defs>
  <sodipodi:namedview
     id="base"
     pagecolor="#ffffff"
     bordercolor="#666666"
     borderopacity="1.0"
     inkscape:pageopacity="0.0"
     inkscape:pageshadow="2"
     inkscape:zoom="7.9195959"
     inkscape:cx="73.7753"
     inkscape:cy="-27.614998"
     inkscape:document-units="mm"
     inkscape:current-layer="layer1"
     showgrid="false"
     units="px"
     inkscape:window-width="2782"
     inkscape:window-height="1835"
     inkscape:window-x="26"
     inkscape:window-y="23"
     inkscape:window-maximized="0"
     inkscape:document-rotation="0"
     fit-margin-top="0.5"
     fit-margin-left="0.5"
     fit-margin-right="0.5"
     fit-margin-bottom="0.5" />
  <metadata
     id="metadata2158">
    <rdf:RDF>
      <cc:Work
         rdf:about="">
        <dc:format>image/svg+xml</dc:format>
        <dc:type
           rdf:resource="http://purl.org/dc/dcmitype/StillImage" />
        <dc:title></dc:title>
      </cc:Work>
    </rdf:RDF>
  </metadata>
  <g
     inkscape:label="Layer 1"
     inkscape:groupmode="layer"
     id="layer1"
     transform="translate(-258.15782,-281.34539)">
    <path
       style="fill:#b7b7b7;fill-opacity:1;stroke:#ffffff;stroke-width:0.0336107px;stroke-linecap:butt;stroke-linejoin:miter;stroke-opacity:1"
       d="m 263.84369,282.90241 -0.007,1.95421 h -1.99361 l 2.82296,2.84287 2.82297,-2.84287 h -1.9705 l -0.0126,-1.95421 h 1.0067 l -1.84672,-1.40347 -1.77725,1.40347 z"
       id="path2709-6-7-4"
       inkscape:connector-curvature="0"
       sodipodi:nodetypes="ccccccccccc" />
    <path
       style="fill:#b7b7b7;fill-opacity:1;stroke:#ffffff;stroke-width:0.0336107px;stroke-linecap:butt;stroke-linejoin:miter;stroke-opacity:1"
       d="m 265.46993,292.74461 0.007,-1.9542 1.56666,0.0356 -2.40023,-2.20207 -2.40956,2.20207 1.56133,-0.0356 0.0126,1.9542 h -1.0067 l 1.84673,1.40349 1.77724,-1.40349 z"
       id="path2709-6-7-4-5"
       inkscape:connector-curvature="0"
       sodipodi:nodetypes="ccccccccccc" />
    <path
       style="fill:#b7b7b7;fill-opacity:1;stroke:#ffffff;stroke-width:0.0336107px;stroke-linecap:butt;stroke-linejoin:miter;stroke-opacity:1"
       d="m 259.71484,288.63663 1.95422,0.007 v 1.99362 l 2.84287,-2.82296 -2.84287,-2.82296 v 1.9705 l -1.95422,0.0126 v -1.00669 l -1.40347,1.84673 1.40347,1.77724 z"
       id="path2709-6"
       inkscape:connector-curvature="0"
       sodipodi:nodetypes="ccccccccccc" />
    <path
       style="fill:#b7b7b7;fill-opacity:1;stroke:#ffffff;stroke-width:0.0336107px;stroke-linecap:butt;stroke-linejoin:miter;stroke-opacity:1"
       d="m 269.58524,286.99048 -1.9542,-0.007 v -1.99362 l -2.84288,2.82296 2.84288,2.82296 v -1.9705 l 1.9542,-0.0126 v 1.0067 l 1.40349,-1.84673 -1.40349,-1.77724 z"
       id="path2709-6-7"
       inkscape:connector-curvature="0"
       sodipodi:nodetypes="ccccccccccc" />
    <path
       style="fill:#0e60ff;fill-opacity:1;stroke:#1e6cff;stroke-width:0.126035;stroke-linecap:butt;stroke-linejoin:miter;stroke-miterlimit:4;stroke-dasharray:none;stroke-opacity:1"
       d="m 261.70483,290.57993 v -5.68988 l 1.05115,0.002 1.90454,2.03852 1.91367,-2.04555 h 1.0373 v 5.6941 l -1.07589,-1.07979 -0.0186,-3.03757 -1.86521,2.05755 c -0.58415,-0.55542 -1.15538,-1.42929 -1.83818,-2.01679 l -0.007,3.00876 z"
       id="path2816"
       inkscape:connector-curvature="0"
       sodipodi:nodetypes="ccccccccccccc"
       inkscape:export-xdpi="96.000008"
       inkscape:export-ydpi="96.000008" />
    <g
       aria-label="Portal"
       transform="translate(-0.03340869,0.79202088)"
       id="text836"
       style="font-style:normal;font-weight:normal;font-size:10.5833px;line-height:1.25;font-family:sans-serif;text-align:start;writing-mode:lr-tb;text-anchor:start;white-space:pre;shape-inside:url(#rect838);fill:#b7b7b7;fill-opacity:1;stroke:none">
      <path
         d="m 277.91103,285.72409 q 0,1.03353 -0.67696,1.64331 -0.67179,0.60978 -1.82934,0.60978 h -2.1394 v 2.83702 h -0.98701 v -7.28118 h 3.0644 q 1.22473,0 1.89652,0.5736 0.67179,0.57361 0.67179,1.61747 z m -0.99218,0.0103 q 0,-1.41077 -1.69499,-1.41077 h -1.95853 v 2.87321 h 1.99988 q 1.65364,0 1.65364,-1.46244 z"
         style="font-style:normal;font-variant:normal;font-weight:normal;font-stretch:normal;font-size:10.5833px;font-family:'Liberation Sans';-inkscape-font-specification:'Liberation Sans, Normal';font-variant-ligatures:normal;font-variant-caps:normal;font-variant-numeric:normal;font-variant-east-asian:normal;text-align:start;writing-mode:lr-tb;text-anchor:start;fill:#b7b7b7;fill-opacity:1"
         id="path854" />
      <path
         d="m 283.91065,288.01335 q 0,1.46761 -0.64596,2.18591 -0.64595,0.7183 -1.87585,0.7183 -1.22472,0 -1.85001,-0.74414 -0.62528,-0.74931 -0.62528,-2.16007 0,-2.89387 2.5063,-2.89387 1.28157,0 1.88618,0.70796 0.60462,0.7028 0.60462,2.18591 z m -0.97669,0 q 0,-1.15755 -0.34623,-1.67948 -0.34106,-0.5271 -1.15238,-0.5271 -0.81648,0 -1.18338,0.53744 -0.36174,0.53226 -0.36174,1.66914 0,1.10587 0.35657,1.66398 0.36173,0.55293 1.13171,0.55293 0.83715,0 1.19372,-0.53743 0.36173,-0.53743 0.36173,-1.67948 z"
         style="font-style:normal;font-variant:normal;font-weight:normal;font-stretch:normal;font-size:10.5833px;font-family:'Liberation Sans';-inkscape-font-specification:'Liberation Sans, Normal';font-variant-ligatures:normal;font-variant-caps:normal;font-variant-numeric:normal;font-variant-east-asian:normal;text-align:start;writing-mode:lr-tb;text-anchor:start;fill:#b7b7b7;fill-opacity:1"
         id="path856" />
      <path
         d="m 285.08886,290.8142 v -4.28913 q 0,-0.58911 -0.031,-1.30224 h 0.87849 q 0.0414,0.95085 0.0414,1.14205 h 0.0207 q 0.2222,-0.7183 0.51159,-0.98185 0.28939,-0.26355 0.81649,-0.26355 0.18603,0 0.37723,0.0517 v 0.85265 q -0.18603,-0.0517 -0.49609,-0.0517 -0.57877,0 -0.88366,0.50126 -0.30489,0.49609 -0.30489,1.42626 v 2.91454 z"
         style="font-style:normal;font-variant:normal;font-weight:normal;font-stretch:normal;font-size:10.5833px;font-family:'Liberation Sans';-inkscape-font-specification:'Liberation Sans, Normal';font-variant-ligatures:normal;font-variant-caps:normal;font-variant-numeric:normal;font-variant-east-asian:normal;text-align:start;writing-mode:lr-tb;text-anchor:start;fill:#b7b7b7;fill-opacity:1"
         id="path858" />
      <path
         d="m 290.74225,290.77286 q -0.45992,0.12403 -0.94051,0.12403 -1.11621,0 -1.11621,-1.26607 v -3.73103 h -0.64595 v -0.67696 h 0.68213 l 0.27388,-1.25056 h 0.62012 v 1.25056 h 1.03352 v 0.67696 h -1.03352 v 3.52949 q 0,0.40307 0.12919,0.56844 0.13435,0.1602 0.45992,0.1602 0.18603,0 0.53743,-0.0723 z"
         style="font-style:normal;font-variant:normal;font-weight:normal;font-stretch:normal;font-size:10.5833px;font-family:'Liberation Sans';-inkscape-font-specification:'Liberation Sans, Normal';font-variant-ligatures:normal;font-variant-caps:normal;font-variant-numeric:normal;font-variant-east-asian:normal;text-align:start;writing-mode:lr-tb;text-anchor:start;fill:#b7b7b7;fill-opacity:1"
         id="path860" />
      <path
         d="m 292.95916,290.91756 q -0.84232,0 -1.26607,-0.44442 -0.42374,-0.44442 -0.42374,-1.21956 0,-0.86816 0.56844,-1.33325 0.5736,-0.46508 1.84484,-0.49609 l 1.25573,-0.0207 v -0.30489 q 0,-0.68213 -0.28939,-0.97668 -0.28938,-0.29456 -0.9095,-0.29456 -0.62528,0 -0.9095,0.21188 -0.28422,0.21187 -0.34106,0.67696 l -0.97152,-0.0879 q 0.23771,-1.50895 2.24275,-1.50895 1.0542,0 1.58646,0.48576 0.53227,0.48059 0.53227,1.39526 v 2.40811 q 0,0.41341 0.10852,0.62528 0.10852,0.20671 0.41341,0.20671 0.13436,0 0.30489,-0.0362 v 0.57878 q -0.3514,0.0827 -0.7183,0.0827 -0.51676,0 -0.75447,-0.26872 -0.23255,-0.27388 -0.26355,-0.85265 h -0.031 q -0.35656,0.64078 -0.83199,0.9095 -0.47025,0.26355 -1.14721,0.26355 z m 0.21187,-0.69763 q 0.5116,0 0.90951,-0.23255 0.3979,-0.23254 0.62528,-0.63561 0.23254,-0.40825 0.23254,-0.83716 v -0.45992 l -1.01802,0.0207 q -0.65629,0.0103 -0.99735,0.13436 -0.3359,0.12402 -0.51677,0.3824 -0.18086,0.25839 -0.18086,0.67696 0,0.45475 0.24288,0.7028 0.24804,0.24805 0.70279,0.24805 z"
         style="font-style:normal;font-variant:normal;font-weight:normal;font-stretch:normal;font-size:10.5833px;font-family:'Liberation Sans';-inkscape-font-specification:'Liberation Sans, Normal';font-variant-ligatures:normal;font-variant-caps:normal;font-variant-numeric:normal;font-variant-east-asian:normal;text-align:start;writing-mode:lr-tb;text-anchor:start;fill:#b7b7b7;fill-opacity:1"
         id="path862" />
      <path
         d="m 297.41882,290.8142 v -7.66875 h 0.93017 v 7.66875 z"
         style="font-style:normal;font-variant:normal;font-weight:normal;font-stretch:normal;font-size:10.5833px;font-family:'Liberation Sans';-inkscape-font-specification:'Liberation Sans, Normal';font-variant-ligatures:normal;font-variant-caps:normal;font-variant-numeric:normal;font-variant-east-asian:normal;text-align:start;writing-mode:lr-tb;text-anchor:start;fill:#b7b7b7;fill-opacity:1"
         id="path864" />
    </g>
  </g>
</svg>
